{
  "machine": "capitalize",
  "expectations": [
    {
      "using": {
        "string": "guido"
      },
      "outcome": "success",
      "returns": "Guido"
    },
    {
      "using": {
        "string": "6uido"
      },
      "outcome": "success",
      "returns": "6uido"
    },
    {
      "using": {
        "string": "---would you look at all those dashes?!!?"
      },
      "outcome": "success",
      "returns": "---would you look at all those dashes?!!?"
    },
    {
      "using": {
        "string": "villeriño"
      },
      "outcome": "success",
      "returns": "Villeriño"
    },
    {
      "using": {
        "string": "villeriño",
        "at": 7
      },
      "outcome": "success",
      "returns": "villeriÑo"
    },
    {
      "using": {
        "string": "villeriño",
        "at": 2
      },
      "outcome": "success",
      "returns": "viLleriño"
    }
  ]
}