{
  "machine": "kebab-case",
  "expectations": [
    {
      "using": {
        "string": "Christian van der Henst"
      },
      "outcome": "success",
      "returns": "christian-van-der-henst"
    },
    {
      "using": {
        "string": "Freddy Vega"
      },
      "outcome": "success",
      "returns": "freddy-vega"
    },
    {
      "using": {
        "string": "Freddy_Vega"
      },
      "outcome": "success",
      "returns": "freddy-vega"
    },
    {
      "using": {
        "string": "Freddyvega"
      },
      "outcome": "success",
      "returns": "freddyvega"
    },
    {
      "using": {
        "string": "FreddyVega"
      },
      "outcome": "success",
      "returns": "freddy-vega"
    },
    {
      "using": {
        "string": "freddyVega"
      },
      "outcome": "success",
      "returns": "freddy-vega"
    },
    {
      "using": {
        "string": "RACHAEL-SHAW"
      },
      "outcome": "success",
      "returns": "rachael-shaw"
    },
    {
      "using": {
        "string": "RACHAElSHAW"
      },
      "outcome": "success",
      "returns": "racha-el-shaw"
    },
    {
      "using": {
        "string": "IRLNATHaN"
      },
      "outcome": "success",
      "returns": "irlnat-ha-n"
    }
  ]
}