{
  "machine": "slice",
  "expectations": [
    {
      "using": {
        "string": "Molly McGee",
        "start": 0,
        "end": 2
      },
      "outcome": "success",
      "returns": "Mol"
    },
    {
      "using": {
        "string": "Molly McGee",
        "start": 2,
        "end": 2
      },
      "outcome": "success",
      "returns": "l"
    },
    {
      "using": {
        "string": "Molly McGee",
        "start": 2,
        "end": 50
      },
      "outcome": "success",
      "returns": "lly McGee"
    },
    {
      "using": {
        "string": "Molly McGee",
        "start": 2
      },
      "outcome": "success",
      "returns": "lly McGee"
    }
  ]
}